[gd_resource type="AudioBusLayout" load_steps=3 format=2]

[sub_resource type="AudioEffectReverb" id=1]
resource_name = "Reverb"
room_size = 0.7
damping = 0.43
wet = 0.39

[sub_resource type="AudioEffectLowPassFilter" id=2]
resource_name = "LowPassFilter"
cutoff_hz = 1.0

[resource]
bus/1/name = "REVERB"
bus/1/solo = false
bus/1/mute = false
bus/1/bypass_fx = false
bus/1/volume_db = 0.0
bus/1/send = "Master"
bus/1/effect/0/effect = SubResource( 1 )
bus/1/effect/0/enabled = true
bus/2/name = "BGM"
bus/2/solo = false
bus/2/mute = false
bus/2/bypass_fx = false
bus/2/volume_db = 0.0
bus/2/send = "Master"
bus/2/effect/0/effect = SubResource( 2 )
bus/2/effect/0/enabled = false
bus/3/name = "SFX"
bus/3/solo = false
bus/3/mute = false
bus/3/bypass_fx = false
bus/3/volume_db = 0.0
bus/3/send = "Master"
